109.237.1.177:9980
217.25.230.163:9971
185.244.217.129:9976
5.189.179.253:1111
109.237.1.177:9980
212.12.20.83:9971
91.122.42.10:9976
188.120.245.83:4917
77.91.78.125:7342
185.182.185.97:9976
89.185.85.51:9988
91.122.42.10:9976
5.189.179.253:1111
45.134.27.187:7777
80.241.217.254:8976
185.244.217.129:9976
95.37.217.89:9976
62.113.118.11:2332
92.241.8.144:9976
89.116.24.205:9977
185.244.217.129:9976
146.52.111.137:9976
185.182.185.97:9976
62.113.118.11:2332
45.134.27.187:7777
95.37.217.89:9976
80.241.217.254:8976
92.241.8.144:9976
195.18.17.69:9976
5.189.179.253:1111
109.237.1.177:9980
89.116.24.205:9977
188.120.245.83:4917
89.185.85.51:9988
91.122.42.10:9976
188.120.245.83:4917
77.91.78.125:7342
185.182.185.97:9976
89.185.85.51:9988
91.122.42.10:9976
5.189.179.253:1111
45.134.27.187:7777
80.241.217.254:8976
185.244.217.129:9976
95.37.217.89:9976
62.113.118.11:2332
92.241.8.144:9976
89.116.24.205:9977
185.244.217.129:9976
146.52.111.137:9976
188.113.165.165:7342
185.182.185.97:9976
62.113.118.11:2332
77.91.78.125:7342
185.130.47.108:7094
45.134.27.187:7777
95.37.217.89:9976
80.241.217.254:8976
92.241.8.144:9976
195.18.17.69:9976
5.189.179.253:1111
109.237.1.177:9980
89.116.24.205:9977
188.120.245.83:4917
89.185.85.51:9988
188.120.245.83:4917
77.91.78.125:7342
185.182.185.97:9976
89.185.85.51:9988
91.122.42.10:9976
5.189.179.253:1111
45.134.27.187:7777
80.241.217.254:8976
185.244.217.129:9976
95.37.217.89:9976
62.113.118.11:2332
92.241.8.144:9976
89.116.24.205:9977
185.130.47.108:7094
195.18.17.69:9976
85.192.63.20:7629
89.185.85.51:9988
185.182.185.97:9976
93.93.117.66:2332
79.137.248.88:9976
87.106.197.136:2332
188.113.170.114:9976
146.52.111.137:9976
188.113.165.165:7342
45.134.27.187:7777
95.37.217.89:9976
80.241.217.254:8976
79.137.207.165:1974
5.189.179.253:1111
109.237.1.177:9980
79.137.207.180:9191
23.145.40.118:5357
89.116.24.205:9977
185.130.46.201:2292
188.120.245.83:4917
185.244.217.129:9976
77.91.78.125:7342
92.241.8.144:9976
91.122.42.10:9976
93.93.118.52:2332
188.120.245.83:4917
77.91.78.125:7342
185.182.185.97:9976
89.185.85.51:9988
91.122.42.10:9976
5.189.179.253:1111
45.134.27.187:7777
80.241.217.254:8976
185.244.217.129:9976
95.37.217.89:9976
62.113.118.11:2332
92.241.8.144:9976
89.116.24.205:9977
188.113.170.114:9976
146.52.111.137:9976
188.113.165.165:7342
185.130.47.108:7094
45.134.27.187:7777
95.37.217.89:9976
80.241.217.254:8976
195.18.17.69:9976
79.137.207.165:1974
5.189.179.253:1111
109.237.1.177:9980
79.137.207.180:9191
23.145.40.118:5357
85.192.63.20:7629
185.130.46.201:2292
188.120.245.83:4917
89.185.85.51:9988
185.244.217.129:9976
185.182.185.97:9976
62.113.118.11:2332
77.91.78.125:7342
93.93.117.66:2332
92.241.8.144:9976
79.137.248.88:9976
87.106.197.136:2332
91.122.42.10:9976
93.93.118.52:2332
146.52.111.137:9976
188.113.165.165:7342
45.134.27.187:7777
80.241.217.254:8976
195.18.17.69:9976
79.137.207.165:1974
5.189.179.253:1111
109.237.1.177:9980
89.116.24.205:9977
188.120.245.83:4917
89.185.85.51:9988
185.244.217.129:9976
62.113.118.11:2332
77.91.78.125:7342
92.241.8.144:9976
87.106.197.136:2332
91.122.42.10:9976
93.93.118.52:2332
188.120.245.83:4917
77.91.78.125:7342
185.182.185.97:9976
89.185.85.51:9988
91.122.42.10:9976
5.189.179.253:1111
45.134.27.187:7777
80.241.217.254:8976
185.244.217.129:9976
95.37.217.89:9976
62.113.118.11:2332
92.241.8.144:9976
89.116.24.205:9977
185.130.47.108:7094
195.18.17.69:9976
89.185.85.51:9988
185.182.185.97:9976
93.93.117.66:2332
79.137.248.88:9976
188.113.170.114:9976
146.52.111.137:9976
188.113.165.165:7342
45.134.27.187:7777
95.37.217.89:9976
80.241.217.254:8976
79.137.207.165:1974
5.189.179.253:1111
109.237.1.177:9980
23.145.40.118:5357
89.116.24.205:9977
188.120.245.83:4917
185.244.217.129:9976
62.113.118.11:2332
77.91.78.125:7342
91.122.42.10:9976
185.130.47.108:7094
195.18.17.69:9976
89.185.85.51:9988
185.182.185.97:9976
93.93.117.66:2332
146.52.111.137:9976
188.113.165.165:7342
45.134.27.187:7777
95.37.217.89:9976
80.241.217.254:8976
79.137.207.165:1974
109.237.1.177:9980
23.145.40.118:5357
89.116.24.205:9977
185.244.217.129:9976
62.113.118.11:2332
77.91.78.125:7342
92.241.8.144:9976
91.122.42.10:9976
188.120.245.83:4917
77.91.78.125:7342
185.182.185.97:9976
89.185.85.51:9988
91.122.42.10:9976
45.134.27.187:7777
80.241.217.254:8976
185.244.217.129:9976
95.37.217.89:9976
62.113.118.11:2332
92.241.8.144:9976
89.116.24.205:9977
188.120.245.83:4917
77.91.78.125:7342
185.182.185.97:9976
89.185.85.51:9988
91.122.42.10:9976
5.189.179.253:1111
45.134.27.187:7777
80.241.217.254:8976
185.244.217.129:9976
95.37.217.89:9976
62.113.118.11:2332
92.241.8.144:9976
89.116.24.205:9977
188.120.245.83:4917
89.185.85.51:9988
91.122.42.10:9976
5.189.179.253:1111
80.241.217.254:8976
185.244.217.129:9976
62.113.118.11:2332
89.116.24.205:9977
77.91.78.125:7342
185.182.185.97:9976
109.237.1.177:9980
45.134.27.187:7777
95.37.217.89:9976
92.241.8.144:9976
185.130.47.108:7094
185.182.185.97:9976
79.137.248.88:9976
80.241.217.254:8976
79.137.207.165:1974
79.137.207.180:9191
23.145.40.118:5357
89.116.24.205:9977
62.113.118.11:2332
77.91.78.125:7342
92.241.8.144:9976
195.18.17.69:9976
93.93.117.66:2332
87.106.197.136:2332
146.52.111.137:9976
188.113.165.165:7342
45.134.27.187:7777
95.37.217.89:9976
109.237.1.177:9980
188.120.245.83:4917
185.244.217.129:9976
91.122.42.10:9976
93.93.118.52:2332
188.120.245.83:4917
77.91.78.125:7342
185.182.185.97:9976
89.185.85.51:9988
91.122.42.10:9976
5.189.179.253:1111
45.134.27.187:7777
80.241.217.254:8976
185.244.217.129:9976
95.37.217.89:9976
62.113.118.11:2332
92.241.8.144:9976
89.116.24.205:9977
185.130.47.108:7094
79.137.248.88:9976
79.137.207.165:1974
79.137.207.180:9191
23.145.40.118:5357
89.116.24.205:9977
62.113.118.11:2332
77.91.78.125:7342
92.241.8.144:9976
195.18.17.69:9976
89.185.85.51:9988
93.93.117.66:2332
87.106.197.136:2332
188.113.170.114:9976
146.52.111.137:9976
188.113.165.165:7342
45.134.27.187:7777
95.37.217.89:9976
109.237.1.177:9980
185.130.46.201:2292
188.120.245.83:4917
185.244.217.129:9976
91.122.42.10:9976
93.93.118.52:2332
188.120.245.83:4917
77.91.78.125:7342
146.52.111.137:9976
185.182.185.97:9976
89.185.85.51:9988
91.122.42.10:9976
5.189.179.253:1111
45.134.27.187:7777
80.241.217.254:8976
185.244.217.129:9976
95.37.217.89:9976
62.113.118.11:2332
92.241.8.144:9976
89.116.24.205:9977
188.113.170.114:9976
146.52.111.137:9976
188.113.165.165:7342
185.130.47.108:7094
95.37.217.89:9976
80.241.217.254:8976
195.18.17.69:9976
79.137.207.165:1974
5.189.179.253:1111
109.237.1.177:9980
79.137.207.180:9191
23.145.40.118:5357
85.192.63.20:7629
89.116.24.205:9977
185.130.46.201:2292
188.120.245.83:4917
89.185.85.51:9988
185.244.217.129:9976
185.182.185.97:9976
62.113.118.11:2332
77.91.78.125:7342
93.93.117.66:2332
92.241.8.144:9976
79.137.248.88:9976
87.106.197.136:2332
91.122.42.10:9976
93.93.118.52:2332
188.120.245.83:4917
77.91.78.125:7342
185.182.185.97:9976
89.185.85.51:9988
91.122.42.10:9976
5.189.179.253:1111
45.134.27.187:7777
80.241.217.254:8976
185.244.217.129:9976
95.37.217.89:9976
62.113.118.11:2332
92.241.8.144:9976
89.116.24.205:9977
185.182.185.97:9976
80.241.217.254:8976
188.113.165.165:7342
45.134.27.187:7777
95.37.217.89:9976
185.244.217.129:9976
79.137.207.165:1974
79.137.207.180:9191
62.113.118.11:2332
89.185.85.51:9988
93.93.117.66:2332
188.120.245.83:4917
91.122.42.10:9976
185.130.47.108:7094
85.192.63.20:7629
79.137.248.88:9976
23.145.40.118:5357
89.116.24.205:9977
87.106.197.136:2332
188.113.170.114:9976
146.52.111.137:9976
109.237.1.177:9980
185.130.46.201:2292
77.91.78.125:7342
92.241.8.144:9976
195.18.17.69:9976
93.93.118.52:2332
188.120.245.83:4917
77.91.78.125:7342
185.182.185.97:9976
89.185.85.51:9988
91.122.42.10:9976
5.189.179.253:1111
45.134.27.187:7777
80.241.217.254:8976
185.244.217.129:9976
95.37.217.89:9976
62.113.118.11:2332
92.241.8.144:9976
89.116.24.205:9977
87.106.197.136:2332
188.113.170.114:9976
185.244.217.129:9976
146.52.111.137:9976
188.113.165.165:7342
185.182.185.97:9976
62.113.118.11:2332
77.91.78.125:7342
185.130.47.108:7094
45.134.27.187:7777
95.37.217.89:9976
93.93.117.66:2332
80.241.217.254:8976
92.241.8.144:9976
195.18.17.69:9976
79.137.207.165:1974
5.189.179.253:1111
109.237.1.177:9980
79.137.207.180:9191
23.145.40.118:5357
85.192.63.20:7629
89.116.24.205:9977
79.137.248.88:9976
185.130.46.201:2292
87.106.197.136:2332
188.120.245.83:4917
89.185.85.51:9988
91.122.42.10:9976
93.93.118.52:2332
188.120.245.83:4917
77.91.78.125:7342
185.182.185.97:9976
89.185.85.51:9988
91.122.42.10:9976
5.189.179.253:1111
45.134.27.187:7777
80.241.217.254:8976
185.244.217.129:9976
95.37.217.89:9976
62.113.118.11:2332
92.241.8.144:9976
89.116.24.205:9977
185.130.47.108:7094
195.18.17.69:9976
89.185.85.51:9988
185.182.185.97:9976
93.93.117.66:2332
79.137.248.88:9976
87.106.197.136:2332
188.113.170.114:9976
146.52.111.137:9976
188.113.165.165:7342
45.134.27.187:7777
95.37.217.89:9976
80.241.217.254:8976
79.137.207.165:1974
109.237.1.177:9980
23.145.40.118:5357
89.116.24.205:9977
188.120.245.83:4917
62.113.118.11:2332
77.91.78.125:7342
92.241.8.144:9976
91.122.42.10:9976
93.93.118.52:2332
